{
  "version": "1.0",
  "defaultProvider": "cdnjs",
  "libraries": [
    {
      "library": "jquery-ajax-unobtrusive@3.2.6",
      "destination": "wwwroot/assets/libs/jquery-ajax-unobtrusive/"
    }
  ]
}